<svg xmlns="http://www.w3.org/2000/svg" viewBox="0 0 15 11">
  <path d="M14.56.44a1.48 1.48 0 0 0-2.1 0l-6.94 7-3-3a1.49 1.49 0 1 0-2.1 2.11l4 4a1.48 1.48 0 0 0 2.1 0 .77.77 0 0 1 .42-.42l7.57-7.59a1.49 1.49 0 0 0 .05-2.1z"
        fill-rule="evenodd" fill="#86BC25"></path>
</svg>