<?xml version="1.0" encoding="UTF-8" standalone="no"?>
<!-- Created with Inkscape (http://www.inkscape.org/) -->
<svg
   xmlns:svg="http://www.w3.org/2000/svg"
   xmlns="http://www.w3.org/2000/svg"
   version="1.0"
   width="500"
   height="162.7"
   id="svg2">
  <defs
     id="defs4" />
  <g
     transform="translate(-33.473765,-2.416603)"
     id="layer1">
    <g
       transform="matrix(4.7906432,0,0,4.7906432,314.27076,-639.30247)"
       id="g2934">
      <path
         d="M 34.369761,141.30654 L -47.720079,141.30654 L -47.720079,160.4966 L 34.369761,160.4966 L 34.369761,141.30654 z"
         id="path2658"
         style="fill:#ffffff;fill-opacity:1;fill-rule:nonzero;stroke:none" />
      <path
         d="M 20.622211,152.08534 L 18.439586,152.08534 L 18.439586,154.44435 L 20.622211,154.44435 L 20.622211,152.08534 z"
         id="path2660"
         style="fill:#ff0000;fill-opacity:1;fill-rule:nonzero;stroke:none" />
      <path
         d="M -36.040389,149.96437 L -31.691029,149.96437 L -31.691029,148.8633 L -36.040389,148.8633 L -36.040389,149.96437 z"
         id="path2662"
         style="fill:#ff0000;fill-opacity:1;fill-rule:nonzero;stroke:none" />
      <path
         d="M 29.938611,152.08534 L 27.732798,152.08534 L 27.732798,154.44435 L 29.938611,154.44435 L 29.938611,152.08534 z"
         id="path2664"
         style="fill:#ff0000;fill-opacity:1;fill-rule:nonzero;stroke:none" />
      <path
         d="M -43.523299,153.00697 L -39.499869,153.00697 L -39.499869,151.74415 L -43.523299,151.74415 L -43.523299,153.00697 z"
         id="path2666"
         style="fill:#ff0000;fill-opacity:1;fill-rule:nonzero;stroke:none" />
      <path
         d="M 32.511861,145.9092 C 32.511861,145.9092 27.448373,145.9092 24.142711,143.704 C 20.839498,145.9092 15.761373,145.9092 15.761373,145.9092 L 15.304823,143.704 C 19.792123,143.83461 22.233536,141.96694 22.233536,141.96694 L 26.047011,141.96694 C 26.047011,141.96694 28.503061,143.83461 32.985486,143.704 L 32.511861,145.9092 M 32.594861,154.52919 C 32.292123,156.8467 29.718886,156.56776 29.718886,156.56776 L 27.734023,156.56776 L 27.734023,158.83461 L 25.063123,158.83461 L 25.063123,149.96437 L 32.594861,149.96437 L 32.594861,154.52919 M 18.014786,146.62452 L 30.568498,146.62452 L 30.568498,148.563 L 18.014786,148.563 L 18.014786,146.62452 M 23.293111,156.56776 L 15.761373,156.56776 L 15.761373,149.96437 L 23.293111,149.96437 L 23.293111,156.56776 M 11.791636,158.33534 L -5.4080639,158.33534 L -5.4080639,155.71937 L 1.4254361,155.71937 L 1.4254361,152.36915 L -4.0994769,152.36915 L -4.0994769,149.96437 L 1.4254361,149.96437 L 1.4254361,147.08046 L -3.5257389,147.08046 C -4.2435139,148.4092 -4.8221269,148.94203 -4.8221269,148.94203 L -7.1780889,147.85072 C -5.7156889,146.16799 -4.4485889,142.55897 -4.4485889,142.55897 L -1.9168519,143.27552 C -2.0755519,143.77052 -2.2073769,144.22157 -2.3709519,144.64394 L 1.4254361,144.64394 L 1.4254361,142.40029 L 4.4723111,142.40029 L 4.4723111,144.64394 L 11.122698,144.64394 L 11.122698,147.08046 L 4.4723111,147.08046 L 4.4723111,149.96437 L 10.219373,149.96437 L 10.219373,152.36915 L 4.4723111,152.36915 L 4.4723111,155.71937 L 11.791636,155.71937 L 11.791636,158.33534 M -9.6121639,151.95411 L -25.991569,151.95411 L -25.991569,149.08059 L -9.6121639,149.08059 L -9.6121639,151.95411 M -29.175149,145.31532 L -30.825549,145.31532 L -30.825549,147.08046 L -29.175149,147.08046 L -29.175149,151.74415 L -36.040389,151.74415 L -36.040389,153.00697 L -29.175149,153.00697 L -29.175149,157.11281 C -29.302119,158.46535 -30.867049,158.83461 -30.867049,158.83461 L -33.415879,158.83461 L -33.415879,157.02919 C -32.124379,157.13172 -31.772819,156.57326 -31.689799,156.09901 L -31.689799,154.78797 L -36.040389,154.78797 L -36.040389,158.88832 L -39.499869,158.88832 L -39.499869,154.81056 C -41.445669,156.97547 -44.316749,158.96827 -44.316749,158.96827 L -46.147819,157.61269 C -45.090689,157.22816 -43.315779,155.51796 -42.578479,154.78797 L -46.352889,154.78797 L -46.352889,149.96437 L -39.499869,149.96437 L -39.499869,148.86269 L -46.352889,148.86269 L -46.352889,147.08046 L -42.798199,147.08046 L -42.798199,145.31532 L -44.407089,145.31532 C -44.731799,145.85549 -45.014999,146.11427 -45.014999,146.11427 L -46.858269,145.55823 C -45.620469,143.71437 -45.547229,142.42286 -45.547229,142.42286 L -43.564799,142.7842 C -43.616079,143.12539 -43.681989,143.42445 -43.760119,143.704 L -38.579449,143.704 L -38.579449,145.31532 L -40.139519,145.31532 L -40.139519,147.08046 L -33.498889,147.08046 L -33.498889,145.31532 L -35.398299,145.31532 C -35.725449,145.85549 -36.013539,146.11427 -36.013539,146.11427 L -37.854349,145.55823 C -36.611679,143.71437 -36.535999,142.42286 -36.535999,142.42286 L -34.556019,142.7842 C -34.607289,143.12539 -34.673199,143.42445 -34.743999,143.704 L -29.175149,143.704 L -29.175149,145.31532 M 35.495248,140.25062 C 35.502573,140.16945 34.875136,140.09803 34.738423,140.07179 C 34.728648,140.06691 34.713998,140.05897 34.701798,140.05654 C 33.236948,139.49806 -6.4407769,136.04042 -6.4407769,136.04042 C -6.4407769,136.04042 -46.096539,139.49806 -47.563829,140.05654 C -47.578479,140.05897 -47.590689,140.06691 -47.605329,140.07179 C -47.742049,140.09803 -48.364619,140.16945 -48.364619,140.25062 C -53.069199,141.53175 -56.526229,145.83046 -56.526229,150.933 C -56.526229,156.03797 -53.069199,160.34584 -48.364619,161.63429 C -48.364619,161.71302 -47.742049,161.78566 -47.605329,161.81069 C -47.590689,161.81556 -47.578479,161.81678 -47.563829,161.82411 C -46.096539,162.38686 -6.4407769,165.8268 -6.4407769,165.8268 C -6.4407769,165.8268 33.236948,162.38686 34.701798,161.82411 C 34.713998,161.81678 34.728648,161.81556 34.738423,161.81069 C 34.875136,161.78566 35.502573,161.71302 35.495248,161.63429 C 40.202286,160.34584 43.669086,156.03797 43.669086,150.933 C 43.669086,145.83046 40.202286,141.53175 35.495248,140.25062"
         id="path2668"
         style="fill:#ff0000;fill-opacity:1;fill-rule:nonzero;stroke:none" />
    </g>
  </g>
</svg>
