<svg width="22px" height="22px" viewBox="0 0 22 22" version="1.1" xmlns="http://www.w3.org/2000/svg" xmlns:xlink="http://www.w3.org/1999/xlink">
  <defs></defs>
  <g id="Symbols" stroke="none" stroke-width="1" fill="none" fill-rule="evenodd">
    <g id="Dashboard-tile/02-1-Planned" transform="translate(-37.000000, -262.000000)">
      <g id="Group" transform="translate(38.000000, 263.000000)">
        <path d="M0.42725,3.75 L17.0939167,3.75" id="Stroke-3976" stroke="#012169" stroke-linecap="round" stroke-linejoin="round"></path>
        <path d="M2.92725,1.66666667 C2.69725,1.66666667 2.51058333,1.85333333 2.51058333,2.08333333 C2.51058333,2.31333333 2.69725,2.5 2.92725,2.5 C3.15725,2.5 3.34391667,2.31333333 3.34391667,2.08333333 C3.34391667,1.85333333 3.15725,1.66666667 2.92725,1.66666667" id="Fill-3977" fill="#012169"></path>
        <path d="M4.59391667,1.66666667 C4.36391667,1.66666667 4.17725,1.85333333 4.17725,2.08333333 C4.17725,2.31333333 4.36391667,2.5 4.59391667,2.5 C4.82391667,2.5 5.01058333,2.31333333 5.01058333,2.08333333 C5.01058333,1.85333333 4.82391667,1.66666667 4.59391667,1.66666667" id="Fill-3978" fill="#012169"></path>
        <path d="M6.26058333,1.66666667 C6.03058333,1.66666667 5.84391667,1.85333333 5.84391667,2.08333333 C5.84391667,2.31333333 6.03058333,2.5 6.26058333,2.5 C6.49058333,2.5 6.67725,2.31333333 6.67725,2.08333333 C6.67725,1.85333333 6.49058333,1.66666667 6.26058333,1.66666667" id="Fill-3979" fill="#012169"></path>
        <path d="M7.92725,13.75 L2.09391667,13.75 C1.17391667,13.75 0.42725,13.0033333 0.42725,12.0833333 L0.42725,2.08333333 C0.42725,1.16333333 1.17391667,0.416666667 2.09391667,0.416666667 L15.42725,0.416666667 C16.34725,0.416666667 17.0939167,1.16333333 17.0939167,2.08333333 L17.0939167,8.75" id="Stroke-3980" stroke="#012169" stroke-linecap="round" stroke-linejoin="round"></path>
        <path d="M13.7605833,11.4680833 C13.3439167,11.6239167 12.9155833,11.8555833 12.5705833,12.1514167 L11.6580833,11.6255833 L10.40725,13.7905833 L11.31475,14.3164167 C11.27475,14.5380833 11.2489167,14.7655833 11.2489167,14.99975 C11.2489167,15.23475 11.2739167,15.46225 11.3139167,15.6839167 L10.4055833,16.2089167 L11.6555833,18.3739167 L12.5705833,17.8489167 C12.9155833,18.1455833 13.3439167,18.37725 13.7605833,18.53225 L13.7605833,19.5830833 L16.2605833,19.5830833 L16.2605833,18.53225 C16.67725,18.37725 17.0939167,18.1455833 17.43975,17.8489167 L18.3464167,18.3739167 L19.5955833,16.2089167 L18.68475,15.6839167 C18.7264167,15.46225 18.7489167,15.23475 18.7489167,14.99975 C18.7489167,14.7655833 18.7255833,14.5380833 18.6839167,14.3164167 L19.5939167,13.7905833 L18.3439167,11.6255833 L17.43975,12.1514167 C17.0939167,11.8555833 16.67725,11.6239167 16.2605833,11.4680833 L16.2605833,10.4164167 L13.7605833,10.4164167 L13.7605833,11.4680833 L13.7605833,11.4680833 Z" id="Stroke-3981" stroke="#012169" stroke-linejoin="round"></path>
        <path d="M16.6658333,15 C16.6658333,15.92 15.9191667,16.6666667 14.9991667,16.6666667 C14.0791667,16.6666667 13.3325,15.92 13.3325,15 C13.3325,14.08 14.0791667,13.3333333 14.9991667,13.3333333 C15.9191667,13.3333333 16.6658333,14.08 16.6658333,15 L16.6658333,15 Z" id="Stroke-3982" stroke="#012169" stroke-linejoin="round"></path>
      </g>
    </g>
  </g>
</svg>