{
    "kind": "List",
    "apiVersion": "v1",
    "metadata": {},
    "items": [
        {
            "kind": "ImageStream",
            "apiVersion": "v1",
            "metadata": {
                "name": "api-catalog",
                "creationTimestamp": null,
                "labels": {
                    "build": "api-catalog"
                },
                "annotations": {
                    "openshift.io/generated-by": "OpenShiftNewBuild"
                }
            },
            "spec": {},
            "status": {
                "dockerImageRepository": ""
            }
        },
        {
            "kind": "BuildConfig",
            "apiVersion": "v1",
            "metadata": {
                "name": "api-catalog",
                "creationTimestamp": null,
                "labels": {
                    "build": "api-catalog"
                },
                "annotations": {
                    "openshift.io/generated-by": "OpenShiftNewBuild"
                }
            },
            "spec": {
                "source": {
                    "type": "Git",
                    "git": {
                        "uri": "git@bitbucket.org:deloittepe/api-catalog.git",
                        "ref": "develop"
                    },
                    "sourceSecret":{
                    	"name" : "bitbucket-key"
                    }
                },
                "strategy": {
                    "type": "Source",
                    "sourceStrategy": {
                        "from": {
                            "kind": "ImageStreamTag",
                            "name": "nodejs-builder-image:latest"
                        }
                    }
                },
                "output": {
                    "to": {
                        "kind": "ImageStreamTag",
                        "name": "api-catalog:latest"
                    }
                },
                "resources": {},
                "postCommit": {},
                "nodeSelector": null
            },
            "status": {
                "lastVersion": 0
            }
        }
    ]
}
